…
    ## Rows: 250 Columns: 5
    ## ── Column specification ────────────────────────────────────────────────────────
    ## Delimiter: ","
    ## dbl (5): SEQN, sex, age, BMI, education
    ## 
    ## ℹ Use `spec()` to retrieve the full column specification for this data.
    ## ℹ Specify the column types or set `show_col_types = FALSE` to quiet this message.

``` r
demographic
```

    ## # A tibble: 225 × 5
    ##     seqn sex      age   bmi education             
    ##    <dbl> <ord>  <dbl> <dbl> <ord>                 
    ##  1 62161 male      22  23.3 High school equivalent
    ##  2 62164 female    44  23.2 More than high school 
    ##  3 62174 male      80  33.9 More than high school 
    ##  4 62177 male      51  20.1 High school equivalent
    ##  5 62178 male      80  28.5 High school equivalent
    ##  6 62180 male      35  27.9 More than high school 
    ##  7 62184 male      26  22.1 High school equivalent
    ##  8 62189 female    30  22.4 More than high school 
    ##  9 62199 male      57  28   More than high school 
    ## 10 62202 male      36  24.7 Less than high school 
    ## # ℹ 215 more rows
…
    ## Rows: 250 Columns: 1441
    ## ── Column specification ────────────────────────────────────────────────────────
    ## Delimiter: ","
    ## dbl (1441): SEQN, min1, min2, min3, min4, min5, min6, min7, min8, min9, min1...
    ## 
    ## ℹ Use `spec()` to retrieve the full column specification for this data.
    ## ℹ Specify the column types or set `show_col_types = FALSE` to quiet this message.

``` r
accelerometer
```

    ## # A tibble: 360,000 × 3
    ##     seqn minute mims_value
    ##    <dbl> <chr>       <dbl>
    ##  1 62161 min1        1.11 
    ##  2 62161 min2        3.12 
    ##  3 62161 min3        1.47 
    ##  4 62161 min4        0.938
    ##  5 62161 min5        1.60 
    ##  6 62161 min6        0.145
    ##  7 62161 min7        2.10 
    ##  8 62161 min8        0.509
    ##  9 62161 min9        1.63 
    ## 10 62161 min10       1.20 
    ## # ℹ 359,990 more rows

``` r
final_df = full_join(demographic,accelerometer) |>
  drop_na() |>
  mutate(minute = str_remove(minute, "[^0-9]+"))
```

    ## Joining with `by = join_by(seqn)`

``` r
final_df
```

    ## # A tibble: 324,000 × 7
    ##     seqn sex     age   bmi education              minute mims_value
    ##    <dbl> <ord> <dbl> <dbl> <ord>                  <chr>       <dbl>
    ##  1 62161 male     22  23.3 High school equivalent 1           1.11 
    ##  2 62161 male     22  23.3 High school equivalent 2           3.12 
    ##  3 62161 male     22  23.3 High school equivalent 3           1.47 
    ##  4 62161 male     22  23.3 High school equivalent 4           0.938
    ##  5 62161 male     22  23.3 High school equivalent 5           1.60 
    ##  6 62161 male     22  23.3 High school equivalent 6           0.145
    ##  7 62161 male     22  23.3 High school equivalent 7           2.10 
    ##  8 62161 male     22  23.3 High school equivalent 8           0.509
    ##  9 62161 male     22  23.3 High school equivalent 9           1.63 
    ## 10 62161 male     22  23.3 High school equivalent 10          1.20 
    ## # ℹ 323,990 more rows
…
``` r
activity_df = final_df |>
  group_by(sex,minute,education,age) |>
  summarise(total_value = sum(mims_value, na.rm = TRUE))
```

    ## `summarise()` has grouped output by 'sex', 'minute', 'education'. You can
    ## override using the `.groups` argument.

``` r
activity_df
```

    ## # A tibble: 218,880 × 5
    ## # Groups:   sex, minute, education [8,640]
    ##    sex   minute education               age total_value
    ##    <ord> <chr>  <ord>                 <dbl>       <dbl>
    ##  1 male  1      Less than high school    23        4.01
    ##  2 male  1      Less than high school    29       12.4 
    ##  3 male  1      Less than high school    31        8.58
    ##  4 male  1      Less than high school    36        3.68
    ##  5 male  1      Less than high school    39        6.32
    ##  6 male  1      Less than high school    44        1.54
    ##  7 male  1      Less than high school    45        8.39
    ##  8 male  1      Less than high school    46        5.05
    ##  9 male  1      Less than high school    47        1.83
    ## 10 male  1      Less than high school    48        2.85
    ## # ℹ 218,870 more rows
…
    ## `summarise()` has grouped output by 'education', 'sex'. You can override using
    ## the `.groups` argument.

``` r
activity_df2
```

    ## # A tibble: 144 × 4
    ## # Groups:   education, sex [6]
    ##    education             sex    hour total_value
    ##    <ord>                 <ord> <dbl>       <dbl>
    ##  1 Less than high school male      1       6956.
    ##  2 Less than high school male      2       5594.
    ##  3 Less than high school male      3       3983.
    ##  4 Less than high school male      4       3356.
    ##  5 Less than high school male      5       3136.
    ##  6 Less than high school male      6       6521.
    ##  7 Less than high school male      7       9447.
    ##  8 Less than high school male      8      15540.
    ##  9 Less than high school male      9      20455.
    ## 10 Less than high school male     10      21702.
    ## # ℹ 134 more rows
…
    ## Rows: 12420 Columns: 7
    ## ── Column specification ────────────────────────────────────────────────────────
    ## Delimiter: ","
    ## chr (6): ride_id, rideable_type, weekdays, start_station_name, end_station_n...
    ## dbl (1): duration
    ## 
    ## ℹ Use `spec()` to retrieve the full column specification for this data.
    ## ℹ Specify the column types or set `show_col_types = FALSE` to quiet this message.

``` r
Jan20
```

    ## # A tibble: 12,420 × 9
    ##    ride_id   rideable_type weekdays duration start_station_name end_station_name
    ##    <chr>     <chr>         <chr>       <dbl> <chr>              <chr>           
    ##  1 4BE06CB3… classic_bike  Tuesday     15.3  Columbus Ave & W … E 53 St & Madis…
    ##  2 26886E03… classic_bike  Wednesd…     5.31 2 Ave & E 96 St    1 Ave & E 110 St
    ##  3 24DC5606… classic_bike  Friday       9.69 Columbia St & Riv… Grand St & Eliz…
    ##  4 EEDC1053… classic_bike  Sunday       7.00 W 84 St & Columbu… Columbus Ave & …
    ##  5 2CD4BD4C… classic_bike  Friday       2.85 Forsyth St & Broo… Suffolk St & St…
    ##  6 E18682F9… classic_bike  Sunday      25.5  Allen St & Hester… Atlantic Ave & …
    ##  7 B9B2E896… classic_bike  Sunday       3.65 Lafayette St & Je… Washington Pl &…
    ##  8 DEF8F504… classic_bike  Sunday      38.3  28 Ave & 44 St     Broadway & Kosc…
    ##  9 17D44DA9… classic_bike  Thursday    38.5  Barrow St & Hudso… Emerson Pl & My…
    ## 10 0FD113A3… classic_bike  Tuesday      6.52 Carlton Ave & Par… Emerson Pl & My…
    ## # ℹ 12,410 more rows
    ## # ℹ 3 more variables: member_casual <chr>, year <dbl>, month <chr>
…
    ## Rows: 21048 Columns: 7
    ## ── Column specification ────────────────────────────────────────────────────────
    ## Delimiter: ","
    ## chr (6): ride_id, rideable_type, weekdays, start_station_name, end_station_n...
    ## dbl (1): duration
    ## 
    ## ℹ Use `spec()` to retrieve the full column specification for this data.
    ## ℹ Specify the column types or set `show_col_types = FALSE` to quiet this message.

``` r
July20
```

    ## # A tibble: 21,048 × 9
    ##    ride_id   rideable_type weekdays duration start_station_name end_station_name
    ##    <chr>     <chr>         <chr>       <dbl> <chr>              <chr>           
    ##  1 A7503F19… classic_bike  Sunday       9.86 Franklin Ave & Em… Grand Army Plaz…
    ##  2 B47EBE0E… classic_bike  Monday       8.29 E 33 St & 1 Ave    E 33 St & 5 Ave 
    ##  3 8146F6C6… classic_bike  Wednesd…     5.39 George St & Wilso… Willoughby Ave …
    ##  4 D49560E3… classic_bike  Saturday    19.2  St. Nicholas Ave … Willis Ave & E …
    ##  5 87687AAE… classic_bike  Tuesday     26.4  Front St & Jay St  Grand St & Eliz…
    ##  6 E30DFCD9… classic_bike  Sunday      51.9  Clinton St & Jora… Myrtle Ave & Li…
    ##  7 0C53CC46… classic_bike  Tuesday     15.7  Vernon Blvd & 50 … Vernon Blvd & 3…
    ##  8 34B02685… classic_bike  Wednesd…     8.39 11 Ave & W 59 St   Columbus Ave & …
    ##  9 15377067… classic_bike  Tuesday      5.56 Fulton St & Broad… St James Pl & O…
    ## 10 A834D6A0… classic_bike  Wednesd…    14.3  W 45 St & 6 Ave    W 30 St & 10 Ave
    ## # ℹ 21,038 more rows
    ## # ℹ 3 more variables: member_casual <chr>, year <dbl>, month <chr>
…
    ## Rows: 18861 Columns: 7
    ## ── Column specification ────────────────────────────────────────────────────────
    ## Delimiter: ","
    ## chr (6): ride_id, rideable_type, weekdays, start_station_name, end_station_n...
    ## dbl (1): duration
    ## 
    ## ℹ Use `spec()` to retrieve the full column specification for this data.
    ## ℹ Specify the column types or set `show_col_types = FALSE` to quiet this message.

``` r
Jan24
```

    ## # A tibble: 18,861 × 9
    ##    ride_id   rideable_type weekdays duration start_station_name end_station_name
    ##    <chr>     <chr>         <chr>       <dbl> <chr>              <chr>           
    ##  1 644A0105… electric_bike Wednesd…    16.5  Lafayette St & Je… W 50 St & 9 Ave 
    ##  2 A5A8C0AD… electric_bike Wednesd…     6.29 Clinton St & Till… Duffield St & W…
    ##  3 B392CE34… electric_bike Tuesday      6.12 West End Ave & W … W 116 St & Broa…
    ##  4 33756EDC… electric_bike Wednesd…    10.9  Grand St & Elizab… Front St & Jay …
    ##  5 29D9AF64… electric_bike Thursday     8.42 12 Ave & W 40 St   Washington St &…
    ##  6 C7E61191… electric_bike Sunday      18.5  7 Ave & Central P… 44 Dr & Jackson…
    ##  7 947A4F86… electric_bike Sunday       3.45 Edgecombe Ave & W… Adam Clayton Po…
    ##  8 0AD92E71… electric_bike Monday      14.9  11 Ave & W 59 St   1 Ave & E 30 St 
    ##  9 CE2C128D… electric_bike Friday       9.55 Allen St & Stanto… Christopher St …
    ## 10 DAAB66B1… electric_bike Sunday       4.87 6 Ave & W 33 St    W 34 St & Hudso…
    ## # ℹ 18,851 more rows
    ## # ℹ 3 more variables: member_casual <chr>, year <dbl>, month <chr>
…
    ## Rows: 47156 Columns: 7
    ## ── Column specification ────────────────────────────────────────────────────────
    ## Delimiter: ","
    ## chr (6): ride_id, rideable_type, weekdays, start_station_name, end_station_n...
    ## dbl (1): duration
    ## 
    ## ℹ Use `spec()` to retrieve the full column specification for this data.
    ## ℹ Specify the column types or set `show_col_types = FALSE` to quiet this message.

``` r
July24
```

    ## # A tibble: 47,156 × 9
    ##    ride_id   rideable_type weekdays duration start_station_name end_station_name
    ##    <chr>     <chr>         <chr>       <dbl> <chr>              <chr>           
    ##  1 86AE148E… classic_bike  Sunday      19.7  Picnic Point       Yankee Ferry Te…
    ##  2 FCF07A30… electric_bike Thursday     7.68 W 54 St & 9 Ave    W 42 St & 8 Ave 
    ##  3 D8397E84… classic_bike  Thursday    24.5  12 Ave & W 40 St   W 84 St & Amste…
    ##  4 E575690C… electric_bike Tuesday      3.53 Grand St & Haveme… S 4 St & Rodney…
    ##  5 184AABED… electric_bike Wednesd…    24.1  Broadway & Kent A… Henry St & Degr…
    ##  6 ACA61A92… classic_bike  Saturday     7.83 E 1 St & 1 Ave     Mercer St & Spr…
    ##  7 C48F946C… classic_bike  Sunday       4.85 Lenox Ave & W 117… Frederick Dougl…
    ##  8 F3072F6E… classic_bike  Saturday     4.33 W 53 St & 10 Ave   West End Ave & …
    ##  9 8A283594… electric_bike Thursday    12.6  W 10 St & Washing… Stanton St & Ch…
    ## 10 EFFCEE4C… electric_bike Friday      10.6  W 55 St & 6 Ave    Broadway & W 41…
    ## # ℹ 47,146 more rows
    ## # ℹ 3 more variables: member_casual <chr>, year <dbl>, month <chr>

Combine all data and then clean any missing data

``` r
all_data =
  bind_rows(Jan20, July20, Jan24, July24) |>
  drop_na()
all_data
```

    ## # A tibble: 99,253 × 9
    ##    ride_id   rideable_type weekdays duration start_station_name end_station_name
    ##    <chr>     <chr>         <chr>       <dbl> <chr>              <chr>           
    ##  1 4BE06CB3… classic_bike  Tuesday     15.3  Columbus Ave & W … E 53 St & Madis…
    ##  2 26886E03… classic_bike  Wednesd…     5.31 2 Ave & E 96 St    1 Ave & E 110 St
    ##  3 24DC5606… classic_bike  Friday       9.69 Columbia St & Riv… Grand St & Eliz…
    ##  4 EEDC1053… classic_bike  Sunday       7.00 W 84 St & Columbu… Columbus Ave & …
    ##  5 2CD4BD4C… classic_bike  Friday       2.85 Forsyth St & Broo… Suffolk St & St…
    ##  6 E18682F9… classic_bike  Sunday      25.5  Allen St & Hester… Atlantic Ave & …
    ##  7 B9B2E896… classic_bike  Sunday       3.65 Lafayette St & Je… Washington Pl &…
    ##  8 DEF8F504… classic_bike  Sunday      38.3  28 Ave & 44 St     Broadway & Kosc…
    ##  9 17D44DA9… classic_bike  Thursday    38.5  Barrow St & Hudso… Emerson Pl & My…
    ## 10 0FD113A3… classic_bike  Tuesday      6.52 Carlton Ave & Par… Emerson Pl & My…
    ## # ℹ 99,243 more rows
    ## # ℹ 3 more variables: member_casual <chr>, year <dbl>, month <chr>
…
